Reference file: td.general/energy
Reference line: 16

       10  5.000000000000e-02 -3.428105551923e-01  0.000000000000e+00  3.247913215759e-01 -6.676018767682e-01 -2.788446085216e-01  4.708204005415e-01 -3.550069767449e-01 -2.045794113895e-01 -6.836443306054e-02


Reference file: td.general/maxwell_energy 
Reference line: 16

       10  5.000000000000e-02  2.282739097351e+03  2.283081907906e+03  1.141540953714e+03  1.141540954192e+03


Reference file: output_iter/td.0000010/density.z=0
Reference line: 871

       0.00000000000000E+000  0.00000000000000E+000  4.03480504299509E-003


Reference file: output_iter/td.0000010/maxwell_e_field-z.z=0
Reference line: 3331

       0.00000000000000E+000  0.00000000000000E+000  6.41248375227933E-001


Reference file: output_iter/td.0000010/maxwell_b_field-y.z=0
Reference line: 3331

       0.00000000000000E+000  0.00000000000000E+000 -4.67941545596717E-003

