Reference file: static/info
Reference line: 46

       46    1   --    -0.141307       2.000000


Reference file: static/density.z=0
Reference line: 871

       0.00000000000000E+000  0.00000000000000E+000  4.03480785310041E-003


