  18
  units: a
      C                   0.000221    1.522408    2.262453
      C                   0.000000   -0.000084    3.263241
      C                  -0.000221   -1.522540    2.262387
      C                   0.000079   -0.911381    0.613214
      C                   0.000072   -2.126660   -0.616419
      C                  -0.000195   -1.654955   -2.302130
      C                   0.000000    0.000053   -2.935162
      C                   0.000195    1.655035   -2.302053
      C                  -0.000072    2.126660   -0.616322
      C                  -0.000079    0.911327    0.613254
      H                  -0.000058    2.820952    2.449236
      H                   0.000000   -0.000116    4.563322
      H                   0.000058   -2.821086    2.449108
      H                   0.000010   -3.343619   -0.134018
      H                   0.000060   -2.631172   -3.149338
      H                   0.000000    0.000083   -4.238828
      H                  -0.000060    2.631288   -3.149219
      H                  -0.000010    3.343606   -0.133868
