  18
  units: a
      C                  -3.546526    2.156945    0.000000
      C                  -5.063701   -0.000138    0.000000
      C                  -3.546428   -2.157153    0.000000
      C                  -1.019570   -1.400735    0.000000
      C                   1.048923   -2.989239    0.000000
      C                   3.597302   -2.374821    0.000000
      C                   4.706790    0.000081    0.000000
      C                   3.597194    2.374934    0.000000
      C                   1.048789    2.989239    0.000000
      C                  -1.019634    1.400640    0.000000
      H                  -4.191619    4.113420    0.000000
      H                  -7.125878   -0.000185    0.000000
      H                  -4.191431   -4.113656    0.000000
      H                   0.599444   -5.014422    0.000000
      H                   4.907972   -3.974944    0.000000
      H                   6.777803    0.000129    0.000000
      H                   4.907793    3.975118    0.000000
      H                   0.599221    5.014403    0.000000
