  12
  b a
      C                   0.000000    0.000000    1.396000
      C                   1.209000    0.000000    0.698000
      C                   1.209000    0.000000   -0.698000
      C                   0.000000    0.000000   -1.396000
      C                  -1.209000    0.000000   -0.698000
      C                  -1.209000    0.000000    0.698000
      H                   0.000000    0.000000    2.479000
      H                   2.147000    0.000000    1.240000
      H                   2.147000    0.000000   -1.240000
      H                   0.000000    0.000000   -2.479000
      H                  -2.147000    0.000000   -1.240000
      H                  -2.147000    0.000000    1.240000
