  12
  b
      C                   0.000000    0.000000    2.638058
      C                   2.284679    0.000000    1.319029
      C                   2.284679    0.000000   -1.319029
      C                   0.000000    0.000000   -2.638058
      C                  -2.284679    0.000000   -1.319029
      C                  -2.284679    0.000000    1.319029
      H                   0.000000    0.000000    4.684631
      H                   4.057242    0.000000    2.343260
      H                   4.057242    0.000000   -2.343260
      H                   0.000000    0.000000   -4.684631
      H                  -4.057242    0.000000   -2.343260
      H                  -4.057242    0.000000    2.343260
