  282
  generated a
      Na                  -31.520441    0.000000   -14.367106
      Na                  -31.520441    0.000000   -8.620264
      Na                  -31.520441    0.000000   -2.873421
      Na                  -31.520441    0.000000    2.873421
      Na                  -31.520441    0.000000    8.620264
      Na                  -31.520441    0.000000    14.367106
      Na                  -21.566617    0.000000   -25.860792
      Na                  -21.566617    0.000000   -20.113949
      Na                  -21.566617    0.000000   -14.367106
      Na                  -21.566617    0.000000   -8.620264
      Na                  -21.566617    0.000000   -2.873421
      Na                  -21.566617    0.000000    2.873421
      Na                  -21.566617    0.000000    8.620264
      Na                  -21.566617    0.000000    14.367106
      Na                  -21.566617    0.000000    20.113949
      Na                  -21.566617    0.000000    25.860792
      Na                  -11.612794    0.000000   -31.607634
      Na                  -11.612794    0.000000   -25.860792
      Na                  -11.612794    0.000000   -20.113949
      Na                  -11.612794    0.000000   -14.367106
      Na                  -11.612794    0.000000   -8.620264
      Na                  -11.612794    0.000000   -2.873421
      Na                  -11.612794    0.000000    2.873421
      Na                  -11.612794    0.000000    8.620264
      Na                  -11.612794    0.000000    14.367106
      Na                  -11.612794    0.000000    20.113949
      Na                  -11.612794    0.000000    25.860792
      Na                  -11.612794    0.000000    31.607634
      Na                  -1.658971    0.000000   -31.607634
      Na                  -1.658971    0.000000   -25.860792
      Na                  -1.658971    0.000000   -20.113949
      Na                  -1.658971    0.000000   -14.367106
      Na                  -1.658971    0.000000   -8.620264
      Na                  -1.658971    0.000000   -2.873421
      Na                  -1.658971    0.000000    2.873421
      Na                  -1.658971    0.000000    8.620264
      Na                  -1.658971    0.000000    14.367106
      Na                  -1.658971    0.000000    20.113949
      Na                  -1.658971    0.000000    25.860792
      Na                  -1.658971    0.000000    31.607634
      Na                   8.294853    0.000000   -31.607634
      Na                   8.294853    0.000000   -25.860792
      Na                   8.294853    0.000000   -20.113949
      Na                   8.294853    0.000000   -14.367106
      Na                   8.294853    0.000000   -8.620264
      Na                   8.294853    0.000000   -2.873421
      Na                   8.294853    0.000000    2.873421
      Na                   8.294853    0.000000    8.620264
      Na                   8.294853    0.000000    14.367106
      Na                   8.294853    0.000000    20.113949
      Na                   8.294853    0.000000    25.860792
      Na                   8.294853    0.000000    31.607634
      Na                   18.248676    0.000000   -25.860792
      Na                   18.248676    0.000000   -20.113949
      Na                   18.248676    0.000000   -14.367106
      Na                   18.248676    0.000000   -8.620264
      Na                   18.248676    0.000000   -2.873421
      Na                   18.248676    0.000000    2.873421
      Na                   18.248676    0.000000    8.620264
      Na                   18.248676    0.000000    14.367106
      Na                   18.248676    0.000000    20.113949
      Na                   18.248676    0.000000    25.860792
      Na                   28.202499    0.000000   -20.113949
      Na                   28.202499    0.000000   -14.367106
      Na                   28.202499    0.000000   -8.620264
      Na                   28.202499    0.000000   -2.873421
      Na                   28.202499    0.000000    2.873421
      Na                   28.202499    0.000000    8.620264
      Na                   28.202499    0.000000    14.367106
      Na                   28.202499    0.000000    20.113949
      Na                  -28.202499    0.000000   -20.113949
      Na                  -28.202499    0.000000   -14.367106
      Na                  -28.202499    0.000000   -8.620264
      Na                  -28.202499    0.000000   -2.873421
      Na                  -28.202499    0.000000    2.873421
      Na                  -28.202499    0.000000    8.620264
      Na                  -28.202499    0.000000    14.367106
      Na                  -28.202499    0.000000    20.113949
      Na                  -18.248676    0.000000   -25.860792
      Na                  -18.248676    0.000000   -20.113949
      Na                  -18.248676    0.000000   -14.367106
      Na                  -18.248676    0.000000   -8.620264
      Na                  -18.248676    0.000000   -2.873421
      Na                  -18.248676    0.000000    2.873421
      Na                  -18.248676    0.000000    8.620264
      Na                  -18.248676    0.000000    14.367106
      Na                  -18.248676    0.000000    20.113949
      Na                  -18.248676    0.000000    25.860792
      Na                  -8.294853    0.000000   -31.607634
      Na                  -8.294853    0.000000   -25.860792
      Na                  -8.294853    0.000000   -20.113949
      Na                  -8.294853    0.000000   -14.367106
      Na                  -8.294853    0.000000   -8.620264
      Na                  -8.294853    0.000000   -2.873421
      Na                  -8.294853    0.000000    2.873421
      Na                  -8.294853    0.000000    8.620264
      Na                  -8.294853    0.000000    14.367106
      Na                  -8.294853    0.000000    20.113949
      Na                  -8.294853    0.000000    25.860792
      Na                  -8.294853    0.000000    31.607634
      Na                   1.658971    0.000000   -31.607634
      Na                   1.658971    0.000000   -25.860792
      Na                   1.658971    0.000000   -20.113949
      Na                   1.658971    0.000000   -14.367106
      Na                   1.658971    0.000000   -8.620264
      Na                   1.658971    0.000000   -2.873421
      Na                   1.658971    0.000000    2.873421
      Na                   1.658971    0.000000    8.620264
      Na                   1.658971    0.000000    14.367106
      Na                   1.658971    0.000000    20.113949
      Na                   1.658971    0.000000    25.860792
      Na                   1.658971    0.000000    31.607634
      Na                   11.612794    0.000000   -31.607634
      Na                   11.612794    0.000000   -25.860792
      Na                   11.612794    0.000000   -20.113949
      Na                   11.612794    0.000000   -14.367106
      Na                   11.612794    0.000000   -8.620264
      Na                   11.612794    0.000000   -2.873421
      Na                   11.612794    0.000000    2.873421
      Na                   11.612794    0.000000    8.620264
      Na                   11.612794    0.000000    14.367106
      Na                   11.612794    0.000000    20.113949
      Na                   11.612794    0.000000    25.860792
      Na                   11.612794    0.000000    31.607634
      Na                   21.566617    0.000000   -25.860792
      Na                   21.566617    0.000000   -20.113949
      Na                   21.566617    0.000000   -14.367106
      Na                   21.566617    0.000000   -8.620264
      Na                   21.566617    0.000000   -2.873421
      Na                   21.566617    0.000000    2.873421
      Na                   21.566617    0.000000    8.620264
      Na                   21.566617    0.000000    14.367106
      Na                   21.566617    0.000000    20.113949
      Na                   21.566617    0.000000    25.860792
      Na                   31.520441    0.000000   -14.367106
      Na                   31.520441    0.000000   -8.620264
      Na                   31.520441    0.000000   -2.873421
      Na                   31.520441    0.000000    2.873421
      Na                   31.520441    0.000000    8.620264
      Na                   31.520441    0.000000    14.367106
      Na                  -33.179411    0.000000   -11.493685
      Na                  -33.179411    0.000000   -5.746843
      Na                  -33.179411    0.000000    0.000000
      Na                  -33.179411    0.000000    5.746843
      Na                  -33.179411    0.000000    11.493685
      Na                  -23.225588    0.000000   -22.987370
      Na                  -23.225588    0.000000   -17.240528
      Na                  -23.225588    0.000000   -11.493685
      Na                  -23.225588    0.000000   -5.746843
      Na                  -23.225588    0.000000    0.000000
      Na                  -23.225588    0.000000    5.746843
      Na                  -23.225588    0.000000    11.493685
      Na                  -23.225588    0.000000    17.240528
      Na                  -23.225588    0.000000    22.987370
      Na                  -13.271764    0.000000   -28.734213
      Na                  -13.271764    0.000000   -22.987370
      Na                  -13.271764    0.000000   -17.240528
      Na                  -13.271764    0.000000   -11.493685
      Na                  -13.271764    0.000000   -5.746843
      Na                  -13.271764    0.000000    0.000000
      Na                  -13.271764    0.000000    5.746843
      Na                  -13.271764    0.000000    11.493685
      Na                  -13.271764    0.000000    17.240528
      Na                  -13.271764    0.000000    22.987370
      Na                  -13.271764    0.000000    28.734213
      Na                  -3.317941    0.000000   -34.481055
      Na                  -3.317941    0.000000   -28.734213
      Na                  -3.317941    0.000000   -22.987370
      Na                  -3.317941    0.000000   -17.240528
      Na                  -3.317941    0.000000   -11.493685
      Na                  -3.317941    0.000000   -5.746843
      Na                  -3.317941    0.000000    0.000000
      Na                  -3.317941    0.000000    5.746843
      Na                  -3.317941    0.000000    11.493685
      Na                  -3.317941    0.000000    17.240528
      Na                  -3.317941    0.000000    22.987370
      Na                  -3.317941    0.000000    28.734213
      Na                  -3.317941    0.000000    34.481055
      Na                   6.635882    0.000000   -34.481055
      Na                   6.635882    0.000000   -28.734213
      Na                   6.635882    0.000000   -22.987370
      Na                   6.635882    0.000000   -17.240528
      Na                   6.635882    0.000000   -11.493685
      Na                   6.635882    0.000000   -5.746843
      Na                   6.635882    0.000000    0.000000
      Na                   6.635882    0.000000    5.746843
      Na                   6.635882    0.000000    11.493685
      Na                   6.635882    0.000000    17.240528
      Na                   6.635882    0.000000    22.987370
      Na                   6.635882    0.000000    28.734213
      Na                   6.635882    0.000000    34.481055
      Na                   16.589706    0.000000   -28.734213
      Na                   16.589706    0.000000   -22.987370
      Na                   16.589706    0.000000   -17.240528
      Na                   16.589706    0.000000   -11.493685
      Na                   16.589706    0.000000   -5.746843
      Na                   16.589706    0.000000    0.000000
      Na                   16.589706    0.000000    5.746843
      Na                   16.589706    0.000000    11.493685
      Na                   16.589706    0.000000    17.240528
      Na                   16.589706    0.000000    22.987370
      Na                   16.589706    0.000000    28.734213
      Na                   26.543529    0.000000   -22.987370
      Na                   26.543529    0.000000   -17.240528
      Na                   26.543529    0.000000   -11.493685
      Na                   26.543529    0.000000   -5.746843
      Na                   26.543529    0.000000    0.000000
      Na                   26.543529    0.000000    5.746843
      Na                   26.543529    0.000000    11.493685
      Na                   26.543529    0.000000    17.240528
      Na                   26.543529    0.000000    22.987370
      Na                  -26.543529    0.000000   -22.987370
      Na                  -26.543529    0.000000   -17.240528
      Na                  -26.543529    0.000000   -11.493685
      Na                  -26.543529    0.000000   -5.746843
      Na                  -26.543529    0.000000    0.000000
      Na                  -26.543529    0.000000    5.746843
      Na                  -26.543529    0.000000    11.493685
      Na                  -26.543529    0.000000    17.240528
      Na                  -26.543529    0.000000    22.987370
      Na                  -16.589706    0.000000   -28.734213
      Na                  -16.589706    0.000000   -22.987370
      Na                  -16.589706    0.000000   -17.240528
      Na                  -16.589706    0.000000   -11.493685
      Na                  -16.589706    0.000000   -5.746843
      Na                  -16.589706    0.000000    0.000000
      Na                  -16.589706    0.000000    5.746843
      Na                  -16.589706    0.000000    11.493685
      Na                  -16.589706    0.000000    17.240528
      Na                  -16.589706    0.000000    22.987370
      Na                  -16.589706    0.000000    28.734213
      Na                  -6.635882    0.000000   -34.481055
      Na                  -6.635882    0.000000   -28.734213
      Na                  -6.635882    0.000000   -22.987370
      Na                  -6.635882    0.000000   -17.240528
      Na                  -6.635882    0.000000   -11.493685
      Na                  -6.635882    0.000000   -5.746843
      Na                  -6.635882    0.000000    0.000000
      Na                  -6.635882    0.000000    5.746843
      Na                  -6.635882    0.000000    11.493685
      Na                  -6.635882    0.000000    17.240528
      Na                  -6.635882    0.000000    22.987370
      Na                  -6.635882    0.000000    28.734213
      Na                  -6.635882    0.000000    34.481055
      Na                   3.317941    0.000000   -34.481055
      Na                   3.317941    0.000000   -28.734213
      Na                   3.317941    0.000000   -22.987370
      Na                   3.317941    0.000000   -17.240528
      Na                   3.317941    0.000000   -11.493685
      Na                   3.317941    0.000000   -5.746843
      Na                   3.317941    0.000000    0.000000
      Na                   3.317941    0.000000    5.746843
      Na                   3.317941    0.000000    11.493685
      Na                   3.317941    0.000000    17.240528
      Na                   3.317941    0.000000    22.987370
      Na                   3.317941    0.000000    28.734213
      Na                   3.317941    0.000000    34.481055
      Na                   13.271764    0.000000   -28.734213
      Na                   13.271764    0.000000   -22.987370
      Na                   13.271764    0.000000   -17.240528
      Na                   13.271764    0.000000   -11.493685
      Na                   13.271764    0.000000   -5.746843
      Na                   13.271764    0.000000    0.000000
      Na                   13.271764    0.000000    5.746843
      Na                   13.271764    0.000000    11.493685
      Na                   13.271764    0.000000    17.240528
      Na                   13.271764    0.000000    22.987370
      Na                   13.271764    0.000000    28.734213
      Na                   23.225588    0.000000   -22.987370
      Na                   23.225588    0.000000   -17.240528
      Na                   23.225588    0.000000   -11.493685
      Na                   23.225588    0.000000   -5.746843
      Na                   23.225588    0.000000    0.000000
      Na                   23.225588    0.000000    5.746843
      Na                   23.225588    0.000000    11.493685
      Na                   23.225588    0.000000    17.240528
      Na                   23.225588    0.000000    22.987370
      Na                   33.179411    0.000000   -11.493685
      Na                   33.179411    0.000000   -5.746843
      Na                   33.179411    0.000000    0.000000
      Na                   33.179411    0.000000    5.746843
      Na                   33.179411    0.000000    11.493685
