  297
  generated a
      Na                   0.000001    0.000000   -11.936713
      Na                   3.610136    0.000000   -11.901799
      Na                  -3.610135    0.000000   -11.901799
      Na                  -1.833169   -3.018569   -11.171361
      Na                   1.833171    3.018568   -11.171360
      Na                  -1.833169    3.018569   -11.171361
      Na                   1.833171   -3.018568   -11.171360
      Na                  -5.387167   -2.943496   -10.775882
      Na                   5.387167    2.943495   -10.775883
      Na                  -5.387167    2.943495   -10.775882
      Na                   5.387167   -2.943495   -10.775883
      Na                   0.000001   -6.012634   -9.665428
      Na                   0.000001    6.012634   -9.665428
      Na                   3.619057    5.891724   -9.577087
      Na                  -3.619057   -5.891725   -9.577087
      Na                  -3.619057    5.891725   -9.577087
      Na                   3.619057   -5.891724   -9.577087
      Na                  -8.342921    1.835659   -8.803223
      Na                  -8.342921   -1.835660   -8.803222
      Na                   8.342921    1.835660   -8.803223
      Na                   8.342920   -1.835659   -8.803223
      Na                  -1.821188    0.000000   -8.919606
      Na                   1.821189    0.000000   -8.919606
      Na                   5.391774    0.000000   -8.824560
      Na                  -5.391774    0.000000   -8.824559
      Na                   1.836504    8.968813   -8.514562
      Na                  -1.836504    8.968813   -8.514562
      Na                  -1.836504   -8.968813   -8.514562
      Na                   1.836504   -8.968813   -8.514562
      Na                  -6.742406   -4.902044   -7.879819
      Na                   6.742406    4.902044   -7.879819
      Na                  -6.742406    4.902044   -7.879819
      Na                   6.742406   -4.902044   -7.879819
      Na                   0.000000   -2.979374   -7.800073
      Na                   0.000000    2.979374   -7.800073
      Na                  -3.642374   -2.962958   -7.724717
      Na                   3.642374    2.962958   -7.724717
      Na                  -3.642374    2.962958   -7.724717
      Na                   3.642374   -2.962958   -7.724717
      Na                  -4.902044   -7.879819   -6.742406
      Na                   4.902044    7.879819   -6.742406
      Na                  -4.902044    7.879819   -6.742406
      Na                   4.902044   -7.879819   -6.742406
      Na                  -1.831207   -5.893500   -6.605349
      Na                  -1.831207    5.893500   -6.605349
      Na                   1.831207    5.893500   -6.605349
      Na                   1.831207   -5.893500   -6.605349
      Na                  -9.772050    0.000000   -6.007378
      Na                   9.772050    0.000000   -6.007378
      Na                  -9.700030    3.705077   -5.994943
      Na                  -9.700030   -3.705082   -5.994943
      Na                   9.700030    3.705082   -5.994943
      Na                   9.700030   -3.705077   -5.994943
      Na                  -6.605349    1.831207   -5.893500
      Na                  -6.605349   -1.831207   -5.893500
      Na                   6.605349    1.831207   -5.893500
      Na                   6.605349   -1.831207   -5.893500
      Na                   0.000000    0.000000   -5.855717
      Na                  -3.577566    0.000000   -5.788617
      Na                   3.577566    0.000000   -5.788617
      Na                   2.971526    10.805322   -5.543026
      Na                  -2.971526   -10.805322   -5.543026
      Na                  -2.971526    10.805322   -5.543026
      Na                   2.971526   -10.805322   -5.543026
      Na                   0.000000    8.780584   -5.426712
      Na                   0.000000   -8.780584   -5.426712
      Na                  -7.879819   -6.742406   -4.902034
      Na                  -7.879819    6.742406   -4.902034
      Na                   7.879819    6.742406   -4.902034
      Na                   7.879819   -6.742406   -4.902034
      Na                  -4.820725   -4.820725   -4.820699
      Na                   4.820725    4.820725   -4.820699
      Na                  -4.820725    4.820725   -4.820699
      Na                   4.820725   -4.820725   -4.820699
      Na                  -1.809516   -2.927853   -4.737354
      Na                   1.809516    2.927853   -4.737354
      Na                  -1.809516    2.927853   -4.737354
      Na                   1.809516   -2.927853   -4.737354
      Na                   0.000000   -11.940354   -3.706517
      Na                   0.000000    11.940354   -3.706517
      Na                  -5.994943    9.700030   -3.705087
      Na                  -5.994943   -9.700030   -3.705087
      Na                   5.994943    9.700030   -3.705087
      Na                   5.994943   -9.700030   -3.705087
      Na                   2.962958    7.724717   -3.642380
      Na                  -2.962958   -7.724717   -3.642380
      Na                  -2.962958    7.724717   -3.642380
      Na                   2.962958   -7.724717   -3.642380
      Na                   0.000000    5.788617   -3.577557
      Na                   0.000000   -5.788617   -3.577557
      Na                  -10.909412   -1.840357   -3.029646
      Na                  -10.909412    1.840357   -3.029646
      Na                   10.909412    1.840357   -3.029646
      Na                   10.909412   -1.840357   -3.029646
      Na                  -7.800072    0.000000   -2.979374
      Na                   7.800072    0.000000   -2.979374
      Na                  -10.805322   -5.543025   -2.971542
      Na                  -10.805322    5.543025   -2.971542
      Na                   10.805322    5.543025   -2.971542
      Na                   10.805322   -5.543025   -2.971542
      Na                  -7.724717   -3.642374   -2.962970
      Na                  -7.724717    3.642374   -2.962970
      Na                   7.724717    3.642374   -2.962970
      Na                   7.724717   -3.642374   -2.962970
      Na                  -4.737369   -1.809516   -2.927832
      Na                  -4.737369    1.809516   -2.927832
      Na                   4.737369    1.809516   -2.927832
      Na                   4.737369   -1.809511   -2.927832
      Na                  -1.770870    0.000000   -2.865335
      Na                   1.770870    0.000000   -2.865335
      Na                  -3.029629    10.909412   -1.840373
      Na                  -3.029629   -10.909412   -1.840373
      Na                   3.029629    10.909412   -1.840373
      Na                   3.029629   -10.909412   -1.840373
      Na                  -8.968813    8.514567   -1.836510
      Na                  -8.968813   -8.514567   -1.836510
      Na                   8.968813    8.514567   -1.836510
      Na                   8.968813   -8.514567   -1.836510
      Na                  -5.893500   -6.605349   -1.831218
      Na                  -5.893500    6.605349   -1.831218
      Na                   5.893500    6.605349   -1.831218
      Na                   5.893500   -6.605349   -1.831218
      Na                   0.000000    8.856469   -1.811162
      Na                   0.000000   -8.856469   -1.811162
      Na                  -2.927853   -4.737369   -1.809522
      Na                  -2.927853    4.737369   -1.809522
      Na                   2.927853    4.737369   -1.809522
      Na                   2.927853   -4.737369   -1.809522
      Na                   0.000000    2.865331   -1.770892
      Na                   0.000000   -2.865331   -1.770892
      Na                   11.940354    3.706532    0.000000
      Na                  -11.940354   -3.706532    0.000000
      Na                  -11.940354    3.706532    0.000000
      Na                   11.940354   -3.706532    0.000000
      Na                   11.989886    0.000000    0.000000
      Na                  -11.989886    0.000000    0.000000
      Na                   0.000000    11.989886    0.000000
      Na                   0.000000   -11.989886    0.000000
      Na                   6.007378    9.772050    0.000000
      Na                  -6.007378   -9.772050    0.000000
      Na                   6.007378   -9.772050    0.000000
      Na                  -6.007378    9.772050    0.000000
      Na                   8.780584    5.426712    0.000000
      Na                  -8.780584   -5.426712    0.000000
      Na                   8.780584   -5.426712    0.000000
      Na                  -8.780584    5.426712    0.000000
      Na                   8.856469    1.811167    0.000000
      Na                  -8.856469   -1.811167    0.000000
      Na                   8.856469   -1.811167    0.000000
      Na                  -8.856469    1.811167    0.000000
      Na                   2.979374    7.800072    0.000000
      Na                  -2.979374   -7.800072    0.000000
      Na                  -2.979374    7.800072    0.000000
      Na                   2.979374   -7.800072    0.000000
      Na                   5.788617    3.577566    0.000000
      Na                  -5.788617   -3.577566    0.000000
      Na                   5.788617   -3.577566    0.000000
      Na                  -5.788617    3.577566    0.000000
      Na                   5.855716    0.000000    0.000000
      Na                  -5.855716    0.000000    0.000000
      Na                   0.000000    5.855716    0.000000
      Na                   0.000000   -5.855716    0.000000
      Na                   2.865331    1.770870    0.000000
      Na                  -2.865331   -1.770870    0.000000
      Na                   2.865331   -1.770870    0.000000
      Na                  -2.865331    1.770870    0.000000
      Na                   0.000000    0.000000    0.000000
      Na                   0.000000   -2.865331    1.770892
      Na                   0.000000    2.865331    1.770892
      Na                  -2.927853    4.737369    1.809521
      Na                  -2.927853   -4.737369    1.809521
      Na                   2.927853   -4.737369    1.809521
      Na                   2.927853    4.737369    1.809521
      Na                   0.000000   -8.856469    1.811161
      Na                   0.000000    8.856469    1.811161
      Na                  -5.893500    6.605349    1.831217
      Na                  -5.893500   -6.605349    1.831217
      Na                   5.893500   -6.605349    1.831217
      Na                   5.893500    6.605349    1.831217
      Na                  -8.968813    8.514567    1.836508
      Na                  -8.968813   -8.514567    1.836508
      Na                   8.968813   -8.514567    1.836508
      Na                   8.968813    8.514567    1.836508
      Na                   3.029629   -10.909412    1.840373
      Na                  -3.029629    10.909412    1.840373
      Na                  -3.029629   -10.909412    1.840373
      Na                   3.029629    10.909412    1.840373
      Na                  -1.770870    0.000000    2.865336
      Na                   1.770870    0.000000    2.865336
      Na                  -4.737369    1.809516    2.927831
      Na                  -4.737369   -1.809516    2.927831
      Na                   4.737369   -1.809511    2.927831
      Na                   4.737369    1.809516    2.927831
      Na                  -7.724717    3.642374    2.962969
      Na                  -7.724717   -3.642374    2.962969
      Na                   7.724717   -3.642374    2.962969
      Na                   7.724717    3.642374    2.962969
      Na                  -10.805322    5.543025    2.971542
      Na                  -10.805322   -5.543025    2.971542
      Na                   10.805322   -5.543025    2.971542
      Na                   10.805322    5.543025    2.971542
      Na                  -7.800072    0.000000    2.979374
      Na                   7.800072    0.000000    2.979374
      Na                  -10.909412    1.840357    3.029644
      Na                  -10.909412   -1.840357    3.029644
      Na                   10.909412   -1.840357    3.029644
      Na                   10.909412    1.840357    3.029644
      Na                   0.000000   -5.788617    3.577555
      Na                   0.000000    5.788617    3.577555
      Na                  -2.962958    7.724717    3.642380
      Na                  -2.962958   -7.724717    3.642380
      Na                   2.962958   -7.724717    3.642380
      Na                   2.962958    7.724717    3.642380
      Na                  -5.994943    9.700030    3.705087
      Na                  -5.994943   -9.700030    3.705087
      Na                   5.994943   -9.700030    3.705087
      Na                   5.994943    9.700030    3.705087
      Na                   0.000000    11.940354    3.706516
      Na                   0.000000   -11.940354    3.706516
      Na                  -1.809516    2.927853    4.737353
      Na                   1.809516   -2.927853    4.737353
      Na                  -1.809516   -2.927853    4.737353
      Na                   1.809516    2.927853    4.737353
      Na                  -4.820725    4.820725    4.820699
      Na                  -4.820725   -4.820725    4.820699
      Na                   4.820725   -4.820725    4.820699
      Na                   4.820725    4.820725    4.820699
      Na                  -7.879819    6.742406    4.902033
      Na                  -7.879819   -6.742406    4.902033
      Na                   7.879819   -6.742406    4.902033
      Na                   7.879819    6.742406    4.902033
      Na                   0.000000   -8.780584    5.426712
      Na                   0.000000    8.780584    5.426712
      Na                  -2.971526    10.805322    5.543025
      Na                  -2.971526   -10.805322    5.543025
      Na                   2.971526   -10.805322    5.543025
      Na                   2.971526    10.805322    5.543025
      Na                  -3.577566    0.000000    5.788616
      Na                   3.577566    0.000000    5.788616
      Na                   0.000000    0.000000    5.855716
      Na                  -6.605349   -1.831207    5.893498
      Na                  -6.605349    1.831207    5.893498
      Na                   6.605349   -1.831207    5.893498
      Na                   6.605349    1.831207    5.893498
      Na                  -9.700030    3.705077    5.994942
      Na                  -9.700030   -3.705082    5.994942
      Na                   9.700030   -3.705077    5.994942
      Na                   9.700030    3.705082    5.994942
      Na                  -9.772050    0.000000    6.007379
      Na                   9.772050    0.000000    6.007379
      Na                  -1.831207    5.893500    6.605347
      Na                   1.831207   -5.893500    6.605347
      Na                  -1.831207   -5.893500    6.605347
      Na                   1.831207    5.893500    6.605347
      Na                  -4.902044    7.879819    6.742406
      Na                   4.902044   -7.879819    6.742406
      Na                  -4.902044   -7.879819    6.742406
      Na                   4.902044    7.879819    6.742406
      Na                  -3.642374    2.962958    7.724717
      Na                  -3.642374   -2.962958    7.724717
      Na                   3.642374   -2.962958    7.724717
      Na                   3.642374    2.962958    7.724717
      Na                   0.000000    2.979374    7.800072
      Na                   0.000000   -2.979374    7.800072
      Na                  -6.742406    4.902044    7.879819
      Na                  -6.742406   -4.902044    7.879819
      Na                   6.742406   -4.902044    7.879819
      Na                   6.742406    4.902044    7.879819
      Na                   1.836504   -8.968813    8.514567
      Na                  -1.836504   -8.968813    8.514567
      Na                  -1.836504    8.968813    8.514567
      Na                   1.836504    8.968813    8.514567
      Na                  -5.426712    0.000000    8.780585
      Na                   5.426712    0.000000    8.780585
      Na                  -1.811167    0.000000    8.856468
      Na                   1.811167    0.000000    8.856468
      Na                  -8.514567   -1.836504    8.968812
      Na                  -8.514567    1.836504    8.968812
      Na                   8.514567   -1.836504    8.968812
      Na                   8.514567    1.836504    8.968812
      Na                  -3.705082    5.994943    9.700030
      Na                  -3.705077   -5.994943    9.700030
      Na                   3.705077   -5.994943    9.700030
      Na                   3.705077    5.994943    9.700030
      Na                   0.000000    6.007378    9.772051
      Na                   0.000000   -6.007378    9.772051
      Na                  -5.543025    2.971526    10.805322
      Na                  -5.543025   -2.971526    10.805322
      Na                   5.543025   -2.971526    10.805322
      Na                   5.543025    2.971526    10.805322
      Na                  -1.840357    3.029629    10.909412
      Na                  -1.840357   -3.029629    10.909412
      Na                   1.840357   -3.029629    10.909412
      Na                   1.840357    3.029629    10.909412
      Na                  -3.706532    0.000000    11.940355
      Na                   3.706532    0.000000    11.940355
      Na                   0.000000    0.000000    11.989885
